﻿{
  "URL": "http://automationpractice.com/index.php?controller=authentication&back=my-account",
  "Username": "skanimozhi@ceiamerica.com",
  "Password": "Test@1234",
  "ProductSearch": "Top",
  "ProductType" : "Printed Dress"
}
